code/Quadratic/ALL0026/F0026CH2.CSV

Record Length,2.500000e+03,,  -0.100000000000,  -0.00800,
Sample Interval,1.000000e-03,,  -0.099000000000,  -0.00800,
Trigger Point,1.000000000000e+02,,  -0.098000000000,  -0.00880,
,,,  -0.097000000000,  -0.00880,
,,,  -0.096000000000,  -0.00880,
,,,  -0.095000000000,  -0.00880,
Source,CH2,,  -0.094000000000,  -0.00880,
Vertical Units,V,,  -0.093000000000,  -0.00880,
Vertical Scale,2.000000e-02,,  -0.092000000000,  -0.00880,
Vertical Offset,5.600000e-02,,  -0.091000000000,  -0.00880,
Horizontal Units,s,,  -0.090000000000,  -0.00880,
Horizontal Scale,2.500000e-01,,  -0.089000000000,  -0.00880,
Pt Fmt,Y,,  -0.088000000000,  -0.00880,
Yzero,0.000000e+00,,  -0.087000000000,  -0.00880,
Probe Atten,1.000000e+00,,  -0.086000000000,  -0.00880,
Model Number,TDS2012C,,  -0.085000000000,  -0.00960,
Serial Number,C018359,,  -0.084000000000,  -0.00880,
Firmware Version,FV:v24.17,,  -0.083000000000,  -0.00880,
,,,-00.082000000000,  -0.00880,
,,,-00.081000000000,  -0.00960,
,,,-00.080000000000,  -0.00960,
,,,-00.079000000000,  -0.00960,
,,,-00.078000000000,  -0.00960,
,,,-00.077000000000,  -0.00880,
,,,-00.076000000000,  -0.00880,
,,,-00.075000000000,  -0.00960,
,,,-00.074000000000,  -0.00880,
,,,-00.073000000000,  -0.00960,
,,,-00.072000000000,  -0.00960,
,,,-00.071000000000,  -0.00960,
,,,-00.070000000000,  -0.00960,
,,,-00.069000000000,  -0.00960,
,,,-00.068000000000,  -0.00800,
,,,-00.067000000000,  -0.00880,
,,,-00.066000000000,  -0.00960,
,,,-00.065000000000,  -0.00880,
,,,-00.064000000000,  -0.00960,
,,,-00.063000000000,  -0.00880,
,,,-00.062000000000,  -0.00880,
,,,-00.061000000000,  -0.00880,
,,,-00.060000000000,  -0.00880,
,,,-00.059000000000,  -0.00960,
,,,-00.058000000000,  -0.00880,
,,,-00.057000000000,  -0.00880,
,,,-00.056000000000,  -0.00880,
,,,-00.055000000000,  -0.00800,
,,,-00.054000000000,  -0.00960,
,,,-00.053000000000,  -0.00960,
,,,-00.052000000000,  -0.00960,
,,,-00.051000000000,  -0.00960,
,,,-00.050000000000,  -0.00960,
,,,-00.049000000000,  -0.00880,
,,,-00.048000000000,  -0.00880,
,,,-00.047000000000,  -0.00800,
,,,-00.046000000000,  -0.00880,
,,,-00.045000000000,  -0.00880,
,,,-00.044000000000,  -0.00880,
,,,-00.043000000000,  -0.00880,
,,,-00.042000000000,  -0.00800,
,,,-00.041000000000,  -0.00880,
,,,-00.040000000000,  -0.00800,
,,,-00.039000000000,  -0.00960,
,,,-00.038000000000,  -0.00960,
,,,-00.037000000000,  -0.00880,
,,,-00.036000000000,  -0.00880,
,,,-00.035000000000,  -0.00880,
,,,-00.034000000000,  -0.00800,
,,,-00.033000000000,  -0.00800,
,,,-00.032000000000,  -0.00800,
,,,-00.031000000000,  -0.00880,
,,,-00.030000000000,  -0.00960,
,,,-00.029000000000,  -0.00880,
,,,-00.028000000000,  -0.00880,
,,,-00.027000000000,  -0.00880,
,,,-00.026000000000,  -0.00880,
,,,-00.025000000000,  -0.00880,
,,,-00.024000000000,  -0.00880,
,,,-00.023000000000,  -0.00800,
,,,-00.022000000000,  -0.00880,
,,,-00.021000000000,  -0.00880,
,,,-00.020000000000,  -0.00880,
,,,-00.019000000000,  -0.00960,
,,,-00.018000000000,  -0.00880,
,,,-00.017000000000,  -0.00800,
,,,-00.016000000000,  -0.00800,
,,,-00.015000000000,  -0.00880,
,,,-00.014000000000,  -0.00880,
,,,-00.013000000000,  -0.00800,
,,,-00.012000000000,  -0.00880,
,,,-00.011000000000,  -0.00880,
,,,-00.010000000000,  -0.00880,
,,,-00.009000000000,  -0.00960,
,,,-00.008000000000,  -0.00880,
,,,-00.007000000000,  -0.00880,
,,,-00.006000000000,  -0.00880,
,,,-00.005000000000,  -0.00880,
,,,-00.004000000000,  -0.00800,
,,,-00.003000000000,  -0.00880,
,,,-00.002000000000,  -0.00880,
,,,-00.001000000000,  -0.00880,
,,,-00.000000000000,  -0.00880,
,,,00.001000000000,  -0.00800,
,,,00.002000000000,  -0.00880,
,,,00.003000000000,  -0.00880,
,,,00.004000000000,  -0.00880,
,,,00.005000000000,  -0.00960,
,,,00.006000000000,  -0.00960,
,,,00.007000000000,  -0.00960,
,,,00.008000000000,  -0.00960,
,,,00.009000000000,  -0.00960,
,,,00.010000000000,  -0.01040,
,,,00.011000000000,  -0.00960,
,,,00.012000000000,  -0.01040,
,,,00.013000000000,  -0.01040,
,,,00.014000000000,  -0.01040,
,,,00.015000000000,  -0.01200,
,,,00.016000000000,  -0.01120,
,,,00.017000000000,  -0.01200,
,,,00.018000000000,  -0.01360,
,,,00.019000000000,  -0.01280,
,,,00.020000000000,  -0.01360,
,,,00.021000000000,  -0.01520,
,,,00.022000000000,  -0.01440,
,,,00.023000000000,  -0.01520,
,,,00.024000000000,  -0.01520,
,,,00.025000000000,  -0.01600,
,,,00.026000000000,  -0.01600,
,,,00.027000000000,  -0.01600,
,,,00.028000000000,  -0.01600,
,,,00.029000000000,  -0.01760,
,,,00.030000000000,  -0.01760,
,,,00.031000000000,  -0.01760,
,,,00.032000000000,  -0.01760,
,,,00.033000000000,  -0.01760,
,,,00.034000000000,  -0.01840,
,,,00.035000000000,  -0.01840,
,,,00.036000000000,  -0.01840,
,,,00.037000000000,  -0.01840,
,,,00.038000000000,  -0.01840,
,,,00.039000000000,  -0.01920,
,,,00.040000000000,  -0.01840,
,,,00.041000000000,  -0.01840,
,,,00.042000000000,  -0.01840,
,,,00.043000000000,  -0.01840,
,,,00.044000000000,  -0.01840,
,,,00.045000000000,  -0.01840,
,,,00.046000000000,  -0.01840,
,,,00.047000000000,  -0.01760,
,,,00.048000000000,  -0.01680,
,,,00.049000000000,  -0.01680,
,,,00.050000000000,  -0.01760,
,,,00.051000000000,  -0.01680,
,,,00.052000000000,  -0.01680,
,,,00.053000000000,  -0.01680,
,,,00.054000000000,  -0.01600,
,,,00.055000000000,  -0.01600,
,,,00.056000000000,  -0.01600,
,,,00.057000000000,  -0.01520,
,,,00.058000000000,  -0.01520,
,,,00.059000000000,  -0.01600,
,,,00.060000000000,  -0.01520,
,,,00.061000000000,  -0.01440,
,,,00.062000000000,  -0.01520,
,,,00.063000000000,  -0.01440,
,,,00.064000000000,  -0.01360,
,,,00.065000000000,  -0.01360,
,,,00.066000000000,  -0.01360,
,,,00.067000000000,  -0.01440,
,,,00.068000000000,  -0.01440,
,,,00.069000000000,  -0.01360,
,,,00.070000000000,  -0.01280,
,,,00.071000000000,  -0.01280,
,,,00.072000000000,  -0.01280,
,,,00.073000000000,  -0.01360,
,,,00.074000000000,  -0.01360,
,,,00.075000000000,  -0.01280,
,,,00.076000000000,  -0.01280,
,,,00.077000000000,  -0.01360,
,,,00.078000000000,  -0.01280,
,,,00.079000000000,  -0.01200,
,,,00.080000000000,  -0.01280,
,,,00.081000000000,  -0.01280,
,,,00.082000000000,  -0.01280,
,,,00.083000000000,  -0.01200,
,,,00.084000000000,  -0.01200,
,,,00.085000000000,  -0.01280,
,,,00.086000000000,  -0.01200,
,,,00.087000000000,  -0.01200,
,,,00.088000000000,  -0.01280,
,,,00.089000000000,  -0.01280,
,,,00.090000000000,  -0.01200,
,,,00.091000000000,  -0.01200,
,,,00.092000000000,  -0.01200,
,,,00.093000000000,  -0.01200,
,,,00.094000000000,  -0.01280,
,,,00.095000000000,  -0.01200,
,,,00.096000000000,  -0.01360,
,,,00.097000000000,  -0.01280,
,,,00.098000000000,  -0.01280,
,,,00.099000000000,  -0.01280,
,,,00.100000000000,  -0.01360,
,,,00.101000000000,  -0.01440,
,,,00.102000000000,  -0.01360,
,,,00.103000000000,  -0.01360,
,,,00.104000000000,  -0.01440,
,,,00.105000000000,  -0.01360,
,,,00.106000000000,  -0.01360,
,,,00.107000000000,  -0.01440,
,,,00.108000000000,  -0.01440,
,,,00.109000000000,  -0.01520,
,,,00.110000000000,  -0.01440,
,,,00.111000000000,  -0.01600,
,,,00.112000000000,  -0.01520,
,,,00.113000000000,  -0.01600,
,,,00.114000000000,  -0.01600,
,,,00.115000000000,  -0.01600,
,,,00.116000000000,  -0.01680,
,,,00.117000000000,  -0.01760,
,,,00.118000000000,  -0.01760,
,,,00.119000000000,  -0.01760,
,,,00.120000000000,  -0.01760,
,,,00.121000000000,  -0.01840,
,,,00.122000000000,  -0.01840,
,,,00.123000000000,  -0.01840,
,,,00.124000000000,  -0.01920,
,,,00.125000000000,  -0.01920,
,,,00.126000000000,  -0.02000,
,,,00.127000000000,  -0.02080,
,,,00.128000000000,  -0.02080,
,,,00.129000000000,  -0.02160,
,,,00.130000000000,  -0.02240,
,,,00.131000000000,  -0.02320,
,,,00.132000000000,  -0.02400,
,,,00.133000000000,  -0.02400,
,,,00.134000000000,  -0.02480,
,,,00.135000000000,  -0.02640,
,,,00.136000000000,  -0.02640,
,,,00.137000000000,  -0.02720,
,,,00.138000000000,  -0.02800,
,,,00.139000000000,  -0.02800,
,,,00.140000000000,  -0.02960,
,,,00.141000000000,  -0.02960,
,,,00.142000000000,  -0.03040,
,,,00.143000000000,  -0.03040,
,,,00.144000000000,  -0.03120,
,,,00.145000000000,  -0.03200,
,,,00.146000000000,  -0.03280,
,,,00.147000000000,  -0.03360,
,,,00.148000000000,  -0.03440,
,,,00.149000000000,  -0.03520,
,,,00.150000000000,  -0.03680,
,,,00.151000000000,  -0.03680,
,,,00.152000000000,  -0.03760,
,,,00.153000000000,  -0.03840,
,,,00.154000000000,  -0.03840,
,,,00.155000000000,  -0.04000,
,,,00.156000000000,  -0.04000,
,,,00.157000000000,  -0.04080,
,,,00.158000000000,  -0.04080,
,,,00.159000000000,  -0.04160,
,,,00.160000000000,  -0.04240,
,,,00.161000000000,  -0.04320,
,,,00.162000000000,  -0.04320,
,,,00.163000000000,  -0.04400,
,,,00.164000000000,  -0.04480,
,,,00.165000000000,  -0.04640,
,,,00.166000000000,  -0.04640,
,,,00.167000000000,  -0.04800,
,,,00.168000000000,  -0.04800,
,,,00.169000000000,  -0.04960,
,,,00.170000000000,  -0.04880,
,,,00.171000000000,  -0.05040,
,,,00.172000000000,  -0.05040,
,,,00.173000000000,  -0.05040,
,,,00.174000000000,  -0.05120,
,,,00.175000000000,  -0.05120,
,,,00.176000000000,  -0.05120,
,,,00.177000000000,  -0.05280,
,,,00.178000000000,  -0.05280,
,,,00.179000000000,  -0.05280,
,,,00.180000000000,  -0.05360,
,,,00.181000000000,  -0.05440,
,,,00.182000000000,  -0.05520,
,,,00.183000000000,  -0.05520,
,,,00.184000000000,  -0.05520,
,,,00.185000000000,  -0.05600,
,,,00.186000000000,  -0.05680,
,,,00.187000000000,  -0.05680,
,,,00.188000000000,  -0.05680,
,,,00.189000000000,  -0.05680,
,,,00.190000000000,  -0.05680,
,,,00.191000000000,  -0.05760,
,,,00.192000000000,  -0.05840,
,,,00.193000000000,  -0.05840,
,,,00.194000000000,  -0.05840,
,,,00.195000000000,  -0.05920,
,,,00.196000000000,  -0.05920,
,,,00.197000000000,  -0.06080,
,,,00.198000000000,  -0.06000,
,,,00.199000000000,  -0.06160,
,,,00.200000000000,  -0.06160,
,,,00.201000000000,  -0.06160,
,,,00.202000000000,  -0.06240,
,,,00.203000000000,  -0.06240,
,,,00.204000000000,  -0.06240,
,,,00.205000000000,  -0.06320,
,,,00.206000000000,  -0.06320,
,,,00.207000000000,  -0.06320,
,,,00.208000000000,  -0.06320,
,,,00.209000000000,  -0.06320,
,,,00.210000000000,  -0.06400,
,,,00.211000000000,  -0.06400,
,,,00.212000000000,  -0.06400,
,,,00.213000000000,  -0.06560,
,,,00.214000000000,  -0.06560,
,,,00.215000000000,  -0.06480,
,,,00.216000000000,  -0.06480,
,,,00.217000000000,  -0.06640,
,,,00.218000000000,  -0.06640,
,,,00.219000000000,  -0.06720,
,,,00.220000000000,  -0.06720,
,,,00.221000000000,  -0.06720,
,,,00.222000000000,  -0.06720,
,,,00.223000000000,  -0.06720,
,,,00.224000000000,  -0.06800,
,,,00.225000000000,  -0.06720,
,,,00.226000000000,  -0.06720,
,,,00.227000000000,  -0.06800,
,,,00.228000000000,  -0.06880,
,,,00.229000000000,  -0.06880,
,,,00.230000000000,  -0.06960,
,,,00.231000000000,  -0.06960,
,,,00.232000000000,  -0.06960,
,,,00.233000000000,  -0.07040,
,,,00.234000000000,  -0.07120,
,,,00.235000000000,  -0.07120,
,,,00.236000000000,  -0.07200,
,,,00.237000000000,  -0.07200,
,,,00.238000000000,  -0.07120,
,,,00.239000000000,  -0.07280,
,,,00.240000000000,  -0.07280,
,,,00.241000000000,  -0.07200,
,,,00.242000000000,  -0.07280,
,,,00.243000000000,  -0.07200,
,,,00.244000000000,  -0.07280,
,,,00.245000000000,  -0.07280,
,,,00.246000000000,  -0.07360,
,,,00.247000000000,  -0.07440,
,,,00.248000000000,  -0.07360,
,,,00.249000000000,  -0.07440,
,,,00.250000000000,  -0.07440,
,,,00.251000000000,  -0.07520,
,,,00.252000000000,  -0.07520,
,,,00.253000000000,  -0.07440,
,,,00.254000000000,  -0.07520,
,,,00.255000000000,  -0.07520,
,,,00.256000000000,  -0.07600,
,,,00.257000000000,  -0.07600,
,,,00.258000000000,  -0.07520,
,,,00.259000000000,  -0.07520,
,,,00.260000000000,  -0.07520,
,,,00.261000000000,  -0.07600,
,,,00.262000000000,  -0.07600,
,,,00.263000000000,  -0.07600,
,,,00.264000000000,  -0.07680,
,,,00.265000000000,  -0.07600,
,,,00.266000000000,  -0.07680,
,,,00.267000000000,  -0.07600,
,,,00.268000000000,  -0.07680,
,,,00.269000000000,  -0.07760,
,,,00.270000000000,  -0.07600,
,,,00.271000000000,  -0.07600,
,,,00.272000000000,  -0.07680,
,,,00.273000000000,  -0.07600,
,,,00.274000000000,  -0.07600,
,,,00.275000000000,  -0.07600,
,,,00.276000000000,  -0.07600,
,,,00.277000000000,  -0.07520,
,,,00.278000000000,  -0.07440,
,,,00.279000000000,  -0.07600,
,,,00.280000000000,  -0.07680,
,,,00.281000000000,  -0.07600,
,,,00.282000000000,  -0.07600,
,,,00.283000000000,  -0.07680,
,,,00.284000000000,  -0.07680,
,,,00.285000000000,  -0.07680,
,,,00.286000000000,  -0.07600,
,,,00.287000000000,  -0.07600,
,,,00.288000000000,  -0.07600,
,,,00.289000000000,  -0.07520,
,,,00.290000000000,  -0.07600,
,,,00.291000000000,  -0.07600,
,,,00.292000000000,  -0.07520,
,,,00.293000000000,  -0.07520,
,,,00.294000000000,  -0.07520,
,,,00.295000000000,  -0.07600,
,,,00.296000000000,  -0.07520,
,,,00.297000000000,  -0.07600,
,,,00.298000000000,  -0.07600,
,,,00.299000000000,  -0.07600,
,,,00.300000000000,  -0.07520,
,,,00.301000000000,  -0.07600,
,,,00.302000000000,  -0.07520,
,,,00.303000000000,  -0.07520,
,,,00.304000000000,  -0.07520,
,,,00.305000000000,  -0.07520,
,,,00.306000000000,  -0.07520,
,,,00.307000000000,  -0.07440,
,,,00.308000000000,  -0.07520,
,,,00.309000000000,  -0.07520,
,,,00.310000000000,  -0.07440,
,,,00.311000000000,  -0.07440,
,,,00.312000000000,  -0.07440,
,,,00.313000000000,  -0.07520,
,,,00.314000000000,  -0.07440,
,,,00.315000000000,  -0.07440,
,,,00.316000000000,  -0.07440,
,,,00.317000000000,  -0.07440,
,,,00.318000000000,  -0.07440,
,,,00.319000000000,  -0.07440,
,,,00.320000000000,  -0.07360,
,,,00.321000000000,  -0.07360,
,,,00.322000000000,  -0.07360,
,,,00.323000000000,  -0.07440,
,,,00.324000000000,  -0.07360,
,,,00.325000000000,  -0.07280,
,,,00.326000000000,  -0.07360,
,,,00.327000000000,  -0.07360,
,,,00.328000000000,  -0.07360,
,,,00.329000000000,  -0.07280,
,,,00.330000000000,  -0.07280,
,,,00.331000000000,  -0.07280,
,,,00.332000000000,  -0.07280,
,,,00.333000000000,  -0.07280,
,,,00.334000000000,  -0.07280,
,,,00.335000000000,  -0.07280,
,,,00.336000000000,  -0.07280,
,,,00.337000000000,  -0.07360,
,,,00.338000000000,  -0.07280,
,,,00.339000000000,  -0.07280,
,,,00.340000000000,  -0.07360,
,,,00.341000000000,  -0.07200,
,,,00.342000000000,  -0.07280,
,,,00.343000000000,  -0.07280,
,,,00.344000000000,  -0.07280,
,,,00.345000000000,  -0.07280,
,,,00.346000000000,  -0.07280,
,,,00.347000000000,  -0.07280,
,,,00.348000000000,  -0.07280,
,,,00.349000000000,  -0.07360,
,,,00.350000000000,  -0.07200,
,,,00.351000000000,  -0.07280,
,,,00.352000000000,  -0.07280,
,,,00.353000000000,  -0.07360,
,,,00.354000000000,  -0.07360,
,,,00.355000000000,  -0.07280,
,,,00.356000000000,  -0.07280,
,,,00.357000000000,  -0.07280,
,,,00.358000000000,  -0.07280,
,,,00.359000000000,  -0.07280,
,,,00.360000000000,  -0.07200,
,,,00.361000000000,  -0.07360,
,,,00.362000000000,  -0.07200,
,,,00.363000000000,  -0.07280,
,,,00.364000000000,  -0.07280,
,,,00.365000000000,  -0.07280,
,,,00.366000000000,  -0.07280,
,,,00.367000000000,  -0.07200,
,,,00.368000000000,  -0.07280,
,,,00.369000000000,  -0.07200,
,,,00.370000000000,  -0.07280,
,,,00.371000000000,  -0.07280,
,,,00.372000000000,  -0.07280,
,,,00.373000000000,  -0.07200,
,,,00.374000000000,  -0.07280,
,,,00.375000000000,  -0.07200,
,,,00.376000000000,  -0.07280,
,,,00.377000000000,  -0.07200,
,,,00.378000000000,  -0.07360,
,,,00.379000000000,  -0.07200,
,,,00.380000000000,  -0.07360,
,,,00.381000000000,  -0.07280,
,,,00.382000000000,  -0.07280,
,,,00.383000000000,  -0.07200,
,,,00.384000000000,  -0.07280,
,,,00.385000000000,  -0.07280,
,,,00.386000000000,  -0.07200,
,,,00.387000000000,  -0.07280,
,,,00.388000000000,  -0.07360,
,,,00.389000000000,  -0.07280,
,,,00.390000000000,  -0.07280,
,,,00.391000000000,  -0.07280,
,,,00.392000000000,  -0.07280,
,,,00.393000000000,  -0.07280,
,,,00.394000000000,  -0.07360,
,,,00.395000000000,  -0.07280,
,,,00.396000000000,  -0.07280,
,,,00.397000000000,  -0.07360,
,,,00.398000000000,  -0.07360,
,,,00.399000000000,  -0.07360,
,,,00.400000000000,  -0.07360,
,,,00.401000000000,  -0.07440,
,,,00.402000000000,  -0.07360,
,,,00.403000000000,  -0.07280,
,,,00.404000000000,  -0.07360,
,,,00.405000000000,  -0.07440,
,,,00.406000000000,  -0.07360,
,,,00.407000000000,  -0.07440,
,,,00.408000000000,  -0.07520,
,,,00.409000000000,  -0.07360,
,,,00.410000000000,  -0.07440,
,,,00.411000000000,  -0.07360,
,,,00.412000000000,  -0.07520,
,,,00.413000000000,  -0.07440,
,,,00.414000000000,  -0.07520,
,,,00.415000000000,  -0.07440,
,,,00.416000000000,  -0.07360,
,,,00.417000000000,  -0.07360,
,,,00.418000000000,  -0.07520,
,,,00.419000000000,  -0.07520,
,,,00.420000000000,  -0.07440,
,,,00.421000000000,  -0.07520,
,,,00.422000000000,  -0.07520,
,,,00.423000000000,  -0.07520,
,,,00.424000000000,  -0.07600,
,,,00.425000000000,  -0.07520,
,,,00.426000000000,  -0.07520,
,,,00.427000000000,  -0.07680,
,,,00.428000000000,  -0.07600,
,,,00.429000000000,  -0.07600,
,,,00.430000000000,  -0.07600,
,,,00.431000000000,  -0.07680,
,,,00.432000000000,  -0.07680,
,,,00.433000000000,  -0.07760,
,,,00.434000000000,  -0.07680,
,,,00.435000000000,  -0.07680,
,,,00.436000000000,  -0.07760,
,,,00.437000000000,  -0.07760,
,,,00.438000000000,  -0.07760,
,,,00.439000000000,  -0.07760,
,,,00.440000000000,  -0.07840,
,,,00.441000000000,  -0.07840,
,,,00.442000000000,  -0.07920,
,,,00.443000000000,  -0.07920,
,,,00.444000000000,  -0.07920,
,,,00.445000000000,  -0.07920,
,,,00.446000000000,  -0.07920,
,,,00.447000000000,  -0.08000,
,,,00.448000000000,  -0.08000,
,,,00.449000000000,  -0.07920,
,,,00.450000000000,  -0.07920,
,,,00.451000000000,  -0.08080,
,,,00.452000000000,  -0.08080,
,,,00.453000000000,  -0.08160,
,,,00.454000000000,  -0.08160,
,,,00.455000000000,  -0.08240,
,,,00.456000000000,  -0.08240,
,,,00.457000000000,  -0.08160,
,,,00.458000000000,  -0.08240,
,,,00.459000000000,  -0.08240,
,,,00.460000000000,  -0.08400,
,,,00.461000000000,  -0.08320,
,,,00.462000000000,  -0.08320,
,,,00.463000000000,  -0.08320,
,,,00.464000000000,  -0.08320,
,,,00.465000000000,  -0.08400,
,,,00.466000000000,  -0.08400,
,,,00.467000000000,  -0.08480,
,,,00.468000000000,  -0.08480,
,,,00.469000000000,  -0.08480,
,,,00.470000000000,  -0.08560,
,,,00.471000000000,  -0.08560,
,,,00.472000000000,  -0.08560,
,,,00.473000000000,  -0.08640,
,,,00.474000000000,  -0.08720,
,,,00.475000000000,  -0.08720,
,,,00.476000000000,  -0.08720,
,,,00.477000000000,  -0.08800,
,,,00.478000000000,  -0.08800,
,,,00.479000000000,  -0.08880,
,,,00.480000000000,  -0.08880,
,,,00.481000000000,  -0.08880,
,,,00.482000000000,  -0.08960,
,,,00.483000000000,  -0.09040,
,,,00.484000000000,  -0.09040,
,,,00.485000000000,  -0.09120,
,,,00.486000000000,  -0.09120,
,,,00.487000000000,  -0.09200,
,,,00.488000000000,  -0.09280,
,,,00.489000000000,  -0.09360,
,,,00.490000000000,  -0.09440,
,,,00.491000000000,  -0.09440,
,,,00.492000000000,  -0.09520,
,,,00.493000000000,  -0.09600,
,,,00.494000000000,  -0.09600,
,,,00.495000000000,  -0.09680,
,,,00.496000000000,  -0.09760,
,,,00.497000000000,  -0.09760,
,,,00.498000000000,  -0.09840,
,,,00.499000000000,  -0.09920,
,,,00.500000000000,  -0.10000,
,,,00.501000000000,  -0.10080,
,,,00.502000000000,  -0.10080,
,,,00.503000000000,  -0.10080,
,,,00.504000000000,  -0.10080,
,,,00.505000000000,  -0.10240,
,,,00.506000000000,  -0.10240,
,,,00.507000000000,  -0.10320,
,,,00.508000000000,  -0.10320,
,,,00.509000000000,  -0.10320,
,,,00.510000000000,  -0.10400,
,,,00.511000000000,  -0.10480,
,,,00.512000000000,  -0.10560,
,,,00.513000000000,  -0.10560,
,,,00.514000000000,  -0.10560,
,,,00.515000000000,  -0.10720,
,,,00.516000000000,  -0.10640,
,,,00.517000000000,  -0.10720,
,,,00.518000000000,  -0.10800,
,,,00.519000000000,  -0.10720,
,,,00.520000000000,  -0.10720,
,,,00.521000000000,  -0.10800,
,,,00.522000000000,  -0.10800,
,,,00.523000000000,  -0.10880,
,,,00.524000000000,  -0.10880,
,,,00.525000000000,  -0.10880,
,,,00.526000000000,  -0.10800,
,,,00.527000000000,  -0.10880,
,,,00.528000000000,  -0.10880,
,,,00.529000000000,  -0.10880,
,,,00.530000000000,  -0.10880,
