code/LowField/ALL0037/F0037CH2.CSV

Record Length,2.500000e+03,,  -2.720000000000,   0.03200,
Sample Interval,4.000000e-03,,  -2.716000000000,   0.03600,
Trigger Point,6.800000000000e+02,,  -2.712000000000,   0.03600,
,,,  -2.708000000000,   0.03600,
,,,  -2.704000000000,   0.03200,
,,,  -2.700000000000,   0.03600,
Source,CH2,,  -2.696000000000,   0.03600,
Vertical Units,V,,  -2.692000000000,   0.03200,
Vertical Scale,1.000000e-01,,  -2.688000000000,   0.03600,
Vertical Offset,1.000000e-01,,  -2.684000000000,   0.03200,
Horizontal Units,s,,  -2.680000000000,   0.03200,
Horizontal Scale,1.000000e+00,,  -2.676000000000,   0.03600,
Pt Fmt,Y,,  -2.672000000000,   0.03200,
Yzero,0.000000e+00,,  -2.668000000000,   0.03200,
Probe Atten,1.000000e+00,,  -2.664000000000,   0.03600,
Model Number,TDS2012C,,  -2.660000000000,   0.03200,
Serial Number,C018359,,  -2.656000000000,   0.03200,
Firmware Version,FV:v24.17,,  -2.652000000000,   0.03200,
,,,-02.648000000000,   0.03200,
,,,-02.644000000000,   0.03200,
,,,-02.640000000000,   0.02800,
,,,-02.636000000000,   0.02800,
,,,-02.632000000000,   0.02000,
,,,-02.628000000000,   0.01600,
,,,-02.624000000000,   0.00400,
,,,-02.620000000000,  -0.00400,
,,,-02.616000000000,  -0.01200,
,,,-02.612000000000,  -0.02400,
,,,-02.608000000000,  -0.03200,
,,,-02.604000000000,  -0.03600,
,,,-02.600000000000,  -0.03600,
,,,-02.596000000000,  -0.03600,
,,,-02.592000000000,  -0.03200,
,,,-02.588000000000,  -0.02800,
,,,-02.584000000000,  -0.02000,
,,,-02.580000000000,  -0.01600,
,,,-02.576000000000,  -0.00800,
,,,-02.572000000000,  -0.00400,
,,,-02.568000000000,   0.00400,
,,,-02.564000000000,   0.00800,
,,,-02.560000000000,   0.01600,
,,,-02.556000000000,   0.02000,
,,,-02.552000000000,   0.02400,
,,,-02.548000000000,   0.02800,
,,,-02.544000000000,   0.02800,
,,,-02.540000000000,   0.03200,
,,,-02.536000000000,   0.03200,
,,,-02.532000000000,   0.03200,
,,,-02.528000000000,   0.03600,
,,,-02.524000000000,   0.03600,
,,,-02.520000000000,   0.03600,
,,,-02.516000000000,   0.03600,
,,,-02.512000000000,   0.03600,
,,,-02.508000000000,   0.03600,
,,,-02.504000000000,   0.04000,
,,,-02.500000000000,   0.03600,
,,,-02.496000000000,   0.03600,
,,,-02.492000000000,   0.03600,
,,,-02.488000000000,   0.03600,
,,,-02.484000000000,   0.03600,
,,,-02.480000000000,   0.03600,
,,,-02.476000000000,   0.03600,
,,,-02.472000000000,   0.03600,
,,,-02.468000000000,   0.03600,
,,,-02.464000000000,   0.03600,
,,,-02.460000000000,   0.03600,
,,,-02.456000000000,   0.03600,
,,,-02.452000000000,   0.03600,
,,,-02.448000000000,   0.03600,
,,,-02.444000000000,   0.03600,
,,,-02.440000000000,   0.03600,
,,,-02.436000000000,   0.03600,
,,,-02.432000000000,   0.04000,
,,,-02.428000000000,   0.03600,
,,,-02.424000000000,   0.03600,
,,,-02.420000000000,   0.03600,
,,,-02.416000000000,   0.03600,
,,,-02.412000000000,   0.04000,
,,,-02.408000000000,   0.03600,
,,,-02.404000000000,   0.03600,
,,,-02.400000000000,   0.03600,
,,,-02.396000000000,   0.04000,
,,,-02.392000000000,   0.03600,
,,,-02.388000000000,   0.03600,
,,,-02.384000000000,   0.04000,
,,,-02.380000000000,   0.03600,
,,,-02.376000000000,   0.03600,
,,,-02.372000000000,   0.03600,
,,,-02.368000000000,   0.03600,
,,,-02.364000000000,   0.03600,
,,,-02.360000000000,   0.04000,
,,,-02.356000000000,   0.04000,
,,,-02.352000000000,   0.03600,
,,,-02.348000000000,   0.03600,
,,,-02.344000000000,   0.03600,
,,,-02.340000000000,   0.03600,
,,,-02.336000000000,   0.03600,
,,,-02.332000000000,   0.03600,
,,,-02.328000000000,   0.03600,
,,,-02.324000000000,   0.03600,
,,,-02.320000000000,   0.03600,
,,,-02.316000000000,   0.03600,
,,,-02.312000000000,   0.03600,
,,,-02.308000000000,   0.03600,
,,,-02.304000000000,   0.03600,
,,,-02.300000000000,   0.03600,
,,,-02.296000000000,   0.03600,
,,,-02.292000000000,   0.03600,
,,,-02.288000000000,   0.03600,
,,,-02.284000000000,   0.03600,
,,,-02.280000000000,   0.03600,
,,,-02.276000000000,   0.04000,
,,,-02.272000000000,   0.04000,
,,,-02.268000000000,   0.03600,
,,,-02.264000000000,   0.03600,
,,,-02.260000000000,   0.03600,
,,,-02.256000000000,   0.03600,
,,,-02.252000000000,   0.03600,
,,,-02.248000000000,   0.03600,
,,,-02.244000000000,   0.03600,
,,,-02.240000000000,   0.03600,
,,,-02.236000000000,   0.03600,
,,,-02.232000000000,   0.04000,
,,,-02.228000000000,   0.04000,
,,,-02.224000000000,   0.03600,
,,,-02.220000000000,   0.03600,
,,,-02.216000000000,   0.04000,
,,,-02.212000000000,   0.04000,
,,,-02.208000000000,   0.03600,
,,,-02.204000000000,   0.03600,
,,,-02.200000000000,   0.03600,
,,,-02.196000000000,   0.03600,
,,,-02.192000000000,   0.04000,
,,,-02.188000000000,   0.03600,
,,,-02.184000000000,   0.04000,
,,,-02.180000000000,   0.03600,
,,,-02.176000000000,   0.03600,
,,,-02.172000000000,   0.04000,
,,,-02.168000000000,   0.03600,
,,,-02.164000000000,   0.03600,
,,,-02.160000000000,   0.04000,
,,,-02.156000000000,   0.03600,
,,,-02.152000000000,   0.04000,
,,,-02.148000000000,   0.04000,
,,,-02.144000000000,   0.04000,
,,,-02.140000000000,   0.04000,
,,,-02.136000000000,   0.03600,
,,,-02.132000000000,   0.04000,
,,,-02.128000000000,   0.04000,
,,,-02.124000000000,   0.03600,
,,,-02.120000000000,   0.04000,
,,,-02.116000000000,   0.03600,
,,,-02.112000000000,   0.03600,
,,,-02.108000000000,   0.03600,
,,,-02.104000000000,   0.04000,
,,,-02.100000000000,   0.04000,
,,,-02.096000000000,   0.03600,
,,,-02.092000000000,   0.03600,
,,,-02.088000000000,   0.03600,
,,,-02.084000000000,   0.04000,
,,,-02.080000000000,   0.03600,
,,,-02.076000000000,   0.03600,
,,,-02.072000000000,   0.04000,
,,,-02.068000000000,   0.03600,
,,,-02.064000000000,   0.03600,
,,,-02.060000000000,   0.04000,
,,,-02.056000000000,   0.03600,
,,,-02.052000000000,   0.03600,
,,,-02.048000000000,   0.03600,
,,,-02.044000000000,   0.03600,
,,,-02.040000000000,   0.04000,
,,,-02.036000000000,   0.03600,
,,,-02.032000000000,   0.03600,
,,,-02.028000000000,   0.03600,
,,,-02.024000000000,   0.03600,
,,,-02.020000000000,   0.04000,
,,,-02.016000000000,   0.03600,
,,,-02.012000000000,   0.04000,
,,,-02.008000000000,   0.04000,
,,,-02.004000000000,   0.03600,
,,,-02.000000000000,   0.03600,
,,,-01.996000000000,   0.04000,
,,,-01.992000000000,   0.04000,
,,,-01.988000000000,   0.03600,
,,,-01.984000000000,   0.03600,
,,,-01.980000000000,   0.03600,
,,,-01.976000000000,   0.03600,
,,,-01.972000000000,   0.03600,
,,,-01.968000000000,   0.03600,
,,,-01.964000000000,   0.04000,
,,,-01.960000000000,   0.04000,
,,,-01.956000000000,   0.04000,
,,,-01.952000000000,   0.04000,
,,,-01.948000000000,   0.03600,
,,,-01.944000000000,   0.04000,
,,,-01.940000000000,   0.03600,
,,,-01.936000000000,   0.04000,
,,,-01.932000000000,   0.03600,
,,,-01.928000000000,   0.03600,
,,,-01.924000000000,   0.04000,
,,,-01.920000000000,   0.03600,
,,,-01.916000000000,   0.03600,
,,,-01.912000000000,   0.04000,
,,,-01.908000000000,   0.03600,
,,,-01.904000000000,   0.03600,
,,,-01.900000000000,   0.04000,
,,,-01.896000000000,   0.04000,
,,,-01.892000000000,   0.03600,
,,,-01.888000000000,   0.04000,
,,,-01.884000000000,   0.03600,
,,,-01.880000000000,   0.03600,
,,,-01.876000000000,   0.03600,
,,,-01.872000000000,   0.04000,
,,,-01.868000000000,   0.03600,
,,,-01.864000000000,   0.04000,
,,,-01.860000000000,   0.04000,
,,,-01.856000000000,   0.03600,
,,,-01.852000000000,   0.03600,
,,,-01.848000000000,   0.03600,
,,,-01.844000000000,   0.04000,
,,,-01.840000000000,   0.04000,
,,,-01.836000000000,   0.04000,
,,,-01.832000000000,   0.04000,
,,,-01.828000000000,   0.03600,
,,,-01.824000000000,   0.04000,
,,,-01.820000000000,   0.04000,
,,,-01.816000000000,   0.03600,
,,,-01.812000000000,   0.03600,
,,,-01.808000000000,   0.03600,
,,,-01.804000000000,   0.04000,
,,,-01.800000000000,   0.03600,
,,,-01.796000000000,   0.04000,
,,,-01.792000000000,   0.03600,
,,,-01.788000000000,   0.03600,
,,,-01.784000000000,   0.03600,
,,,-01.780000000000,   0.04000,
,,,-01.776000000000,   0.04000,
,,,-01.772000000000,   0.03600,
,,,-01.768000000000,   0.03600,
,,,-01.764000000000,   0.04000,
,,,-01.760000000000,   0.03600,
,,,-01.756000000000,   0.03600,
,,,-01.752000000000,   0.03600,
,,,-01.748000000000,   0.03600,
,,,-01.744000000000,   0.04000,
,,,-01.740000000000,   0.03600,
,,,-01.736000000000,   0.03600,
,,,-01.732000000000,   0.04000,
,,,-01.728000000000,   0.03600,
,,,-01.724000000000,   0.04000,
,,,-01.720000000000,   0.03600,
,,,-01.716000000000,   0.04000,
,,,-01.712000000000,   0.03600,
,,,-01.708000000000,   0.04000,
,,,-01.704000000000,   0.03600,
,,,-01.700000000000,   0.04000,
,,,-01.696000000000,   0.04000,
,,,-01.692000000000,   0.03600,
,,,-01.688000000000,   0.04000,
,,,-01.684000000000,   0.03600,
,,,-01.680000000000,   0.04000,
,,,-01.676000000000,   0.03600,
,,,-01.672000000000,   0.03600,
,,,-01.668000000000,   0.03600,
,,,-01.664000000000,   0.03600,
,,,-01.660000000000,   0.04000,
,,,-01.656000000000,   0.04000,
,,,-01.652000000000,   0.04000,
,,,-01.648000000000,   0.04000,
,,,-01.644000000000,   0.03600,
,,,-01.640000000000,   0.04000,
,,,-01.636000000000,   0.03600,
,,,-01.632000000000,   0.04000,
,,,-01.628000000000,   0.04000,
,,,-01.624000000000,   0.04000,
,,,-01.620000000000,   0.03600,
,,,-01.616000000000,   0.04000,
,,,-01.612000000000,   0.04000,
,,,-01.608000000000,   0.04000,
,,,-01.604000000000,   0.04000,
,,,-01.600000000000,   0.04000,
,,,-01.596000000000,   0.04000,
,,,-01.592000000000,   0.04000,
,,,-01.588000000000,   0.03600,
,,,-01.584000000000,   0.04000,
,,,-01.580000000000,   0.03600,
,,,-01.576000000000,   0.04000,
,,,-01.572000000000,   0.04000,
,,,-01.568000000000,   0.03600,
,,,-01.564000000000,   0.03600,
,,,-01.560000000000,   0.03600,
,,,-01.556000000000,   0.03600,
,,,-01.552000000000,   0.03600,
,,,-01.548000000000,   0.03600,
,,,-01.544000000000,   0.04000,
,,,-01.540000000000,   0.03600,
,,,-01.536000000000,   0.03600,
,,,-01.532000000000,   0.03600,
,,,-01.528000000000,   0.04000,
,,,-01.524000000000,   0.03600,
,,,-01.520000000000,   0.04000,
,,,-01.516000000000,   0.03600,
,,,-01.512000000000,   0.03600,
,,,-01.508000000000,   0.04000,
,,,-01.504000000000,   0.04000,
,,,-01.500000000000,   0.03600,
,,,-01.496000000000,   0.04000,
,,,-01.492000000000,   0.04000,
,,,-01.488000000000,   0.03600,
,,,-01.484000000000,   0.03600,
,,,-01.480000000000,   0.04000,
,,,-01.476000000000,   0.04000,
,,,-01.472000000000,   0.04000,
,,,-01.468000000000,   0.03600,
,,,-01.464000000000,   0.03600,
,,,-01.460000000000,   0.03600,
,,,-01.456000000000,   0.04000,
,,,-01.452000000000,   0.03600,
,,,-01.448000000000,   0.03600,
,,,-01.444000000000,   0.03600,
,,,-01.440000000000,   0.03600,
,,,-01.436000000000,   0.04000,
,,,-01.432000000000,   0.04000,
,,,-01.428000000000,   0.03600,
,,,-01.424000000000,   0.04000,
,,,-01.420000000000,   0.03600,
,,,-01.416000000000,   0.03600,
,,,-01.412000000000,   0.04000,
,,,-01.408000000000,   0.03600,
,,,-01.404000000000,   0.04000,
,,,-01.400000000000,   0.03600,
,,,-01.396000000000,   0.03600,
,,,-01.392000000000,   0.04000,
,,,-01.388000000000,   0.03600,
,,,-01.384000000000,   0.03600,
,,,-01.380000000000,   0.03600,
,,,-01.376000000000,   0.03600,
,,,-01.372000000000,   0.03600,
,,,-01.368000000000,   0.04000,
,,,-01.364000000000,   0.03600,
,,,-01.360000000000,   0.04000,
,,,-01.356000000000,   0.04000,
,,,-01.352000000000,   0.03600,
,,,-01.348000000000,   0.03600,
,,,-01.344000000000,   0.03600,
,,,-01.340000000000,   0.04000,
,,,-01.336000000000,   0.03600,
,,,-01.332000000000,   0.03600,
,,,-01.328000000000,   0.04000,
,,,-01.324000000000,   0.04000,
,,,-01.320000000000,   0.03600,
,,,-01.316000000000,   0.03600,
,,,-01.312000000000,   0.03600,
,,,-01.308000000000,   0.03600,
,,,-01.304000000000,   0.03600,
,,,-01.300000000000,   0.03600,
,,,-01.296000000000,   0.03600,
,,,-01.292000000000,   0.03600,
,,,-01.288000000000,   0.03600,
,,,-01.284000000000,   0.03600,
,,,-01.280000000000,   0.04000,
,,,-01.276000000000,   0.03600,
,,,-01.272000000000,   0.04000,
,,,-01.268000000000,   0.03600,
,,,-01.264000000000,   0.04000,
,,,-01.260000000000,   0.04000,
,,,-01.256000000000,   0.03600,
,,,-01.252000000000,   0.04000,
,,,-01.248000000000,   0.03600,
,,,-01.244000000000,   0.04000,
,,,-01.240000000000,   0.04000,
,,,-01.236000000000,   0.03600,
,,,-01.232000000000,   0.03600,
,,,-01.228000000000,   0.03600,
,,,-01.224000000000,   0.04000,
,,,-01.220000000000,   0.04000,
,,,-01.216000000000,   0.04000,
,,,-01.212000000000,   0.04000,
,,,-01.208000000000,   0.04000,
,,,-01.204000000000,   0.03600,
,,,-01.200000000000,   0.04000,
,,,-01.196000000000,   0.03600,
,,,-01.192000000000,   0.03600,
,,,-01.188000000000,   0.04000,
,,,-01.184000000000,   0.04000,
,,,-01.180000000000,   0.04000,
,,,-01.176000000000,   0.03600,
,,,-01.172000000000,   0.04000,
,,,-01.168000000000,   0.04000,
,,,-01.164000000000,   0.03600,
,,,-01.160000000000,   0.03600,
,,,-01.156000000000,   0.04000,
,,,-01.152000000000,   0.04000,
,,,-01.148000000000,   0.04000,
,,,-01.144000000000,   0.03600,
,,,-01.140000000000,   0.03600,
,,,-01.136000000000,   0.03600,
,,,-01.132000000000,   0.03600,
,,,-01.128000000000,   0.03600,
,,,-01.124000000000,   0.04000,
,,,-01.120000000000,   0.04000,
,,,-01.116000000000,   0.03600,
,,,-01.112000000000,   0.03600,
,,,-01.108000000000,   0.03600,
,,,-01.104000000000,   0.04000,
,,,-01.100000000000,   0.04000,
,,,-01.096000000000,   0.04000,
,,,-01.092000000000,   0.04000,
,,,-01.088000000000,   0.04000,
,,,-01.084000000000,   0.03600,
,,,-01.080000000000,   0.03600,
,,,-01.076000000000,   0.03600,
,,,-01.072000000000,   0.04000,
,,,-01.068000000000,   0.03600,
,,,-01.064000000000,   0.04000,
,,,-01.060000000000,   0.04000,
,,,-01.056000000000,   0.03600,
,,,-01.052000000000,   0.03600,
,,,-01.048000000000,   0.04000,
,,,-01.044000000000,   0.03600,
,,,-01.040000000000,   0.03600,
,,,-01.036000000000,   0.04000,
,,,-01.032000000000,   0.03600,
,,,-01.028000000000,   0.04000,
,,,-01.024000000000,   0.04000,
,,,-01.020000000000,   0.03600,
,,,-01.016000000000,   0.03600,
,,,-01.012000000000,   0.03600,
,,,-01.008000000000,   0.03600,
,,,-01.004000000000,   0.04000,
,,,-01.000000000000,   0.03600,
,,,-00.996000000000,   0.03600,
,,,-00.992000000000,   0.03600,
,,,-00.988000000000,   0.03600,
,,,-00.984000000000,   0.03600,
,,,-00.980000000000,   0.04000,
,,,-00.976000000000,   0.03600,
,,,-00.972000000000,   0.04000,
,,,-00.968000000000,   0.04000,
,,,-00.964000000000,   0.04000,
,,,-00.960000000000,   0.03600,
,,,-00.956000000000,   0.04000,
,,,-00.952000000000,   0.03600,
,,,-00.948000000000,   0.03600,
,,,-00.944000000000,   0.04000,
,,,-00.940000000000,   0.04000,
,,,-00.936000000000,   0.03600,
,,,-00.932000000000,   0.03600,
,,,-00.928000000000,   0.04000,
,,,-00.924000000000,   0.04000,
,,,-00.920000000000,   0.03600,
,,,-00.916000000000,   0.03600,
,,,-00.912000000000,   0.03600,
,,,-00.908000000000,   0.04000,
,,,-00.904000000000,   0.03600,
,,,-00.900000000000,   0.03600,
,,,-00.896000000000,   0.04000,
,,,-00.892000000000,   0.03600,
,,,-00.888000000000,   0.04000,
,,,-00.884000000000,   0.03600,
,,,-00.880000000000,   0.04000,
,,,-00.876000000000,   0.03600,
,,,-00.872000000000,   0.03600,
,,,-00.868000000000,   0.04000,
,,,-00.864000000000,   0.03600,
,,,-00.860000000000,   0.03600,
,,,-00.856000000000,   0.04000,
,,,-00.852000000000,   0.03600,
,,,-00.848000000000,   0.04000,
,,,-00.844000000000,   0.04000,
,,,-00.840000000000,   0.03600,
,,,-00.836000000000,   0.04000,
,,,-00.832000000000,   0.04000,
,,,-00.828000000000,   0.03600,
,,,-00.824000000000,   0.03600,
,,,-00.820000000000,   0.04000,
,,,-00.816000000000,   0.03600,
,,,-00.812000000000,   0.03600,
,,,-00.808000000000,   0.04000,
,,,-00.804000000000,   0.03600,
,,,-00.800000000000,   0.03600,
,,,-00.796000000000,   0.04000,
,,,-00.792000000000,   0.04000,
,,,-00.788000000000,   0.03600,
,,,-00.784000000000,   0.03600,
,,,-00.780000000000,   0.04000,
,,,-00.776000000000,   0.04000,
,,,-00.772000000000,   0.03600,
,,,-00.768000000000,   0.04000,
,,,-00.764000000000,   0.04000,
,,,-00.760000000000,   0.03600,
,,,-00.756000000000,   0.04000,
,,,-00.752000000000,   0.03600,
,,,-00.748000000000,   0.04000,
,,,-00.744000000000,   0.04000,
,,,-00.740000000000,   0.03600,
,,,-00.736000000000,   0.03600,
,,,-00.732000000000,   0.04000,
,,,-00.728000000000,   0.03600,
,,,-00.724000000000,   0.04000,
,,,-00.720000000000,   0.04000,
,,,-00.716000000000,   0.04000,
,,,-00.712000000000,   0.03600,
,,,-00.708000000000,   0.04000,
,,,-00.704000000000,   0.03600,
,,,-00.700000000000,   0.04000,
,,,-00.696000000000,   0.04000,
,,,-00.692000000000,   0.04000,
,,,-00.688000000000,   0.03600,
,,,-00.684000000000,   0.03600,
,,,-00.680000000000,   0.03600,
,,,-00.676000000000,   0.03600,
,,,-00.672000000000,   0.03600,
,,,-00.668000000000,   0.04000,
,,,-00.664000000000,   0.04000,
,,,-00.660000000000,   0.03600,
,,,-00.656000000000,   0.04000,
,,,-00.652000000000,   0.03600,
,,,-00.648000000000,   0.03600,
,,,-00.644000000000,   0.03600,
,,,-00.640000000000,   0.04000,
,,,-00.636000000000,   0.03600,
,,,-00.632000000000,   0.04000,
,,,-00.628000000000,   0.03600,
,,,-00.624000000000,   0.03600,
,,,-00.620000000000,   0.04000,
,,,-00.616000000000,   0.03600,
,,,-00.612000000000,   0.03600,
,,,-00.608000000000,   0.03600,
,,,-00.604000000000,   0.03600,
,,,-00.600000000000,   0.03600,
,,,-00.596000000000,   0.04000,
,,,-00.592000000000,   0.03600,
,,,-00.588000000000,   0.04000,
,,,-00.584000000000,   0.04000,
,,,-00.580000000000,   0.04000,
,,,-00.576000000000,   0.04000,
,,,-00.572000000000,   0.03600,
,,,-00.568000000000,   0.04000,
,,,-00.564000000000,   0.04000,
,,,-00.560000000000,   0.03600,
,,,-00.556000000000,   0.03600,
,,,-00.552000000000,   0.03600,
,,,-00.548000000000,   0.03600,
,,,-00.544000000000,   0.03600,
,,,-00.540000000000,   0.03600,
,,,-00.536000000000,   0.04000,
,,,-00.532000000000,   0.03600,
,,,-00.528000000000,   0.03600,
,,,-00.524000000000,   0.04000,
,,,-00.520000000000,   0.03600,
,,,-00.516000000000,   0.04000,
,,,-00.512000000000,   0.04000,
,,,-00.508000000000,   0.03600,
,,,-00.504000000000,   0.03600,
,,,-00.500000000000,   0.03600,
,,,-00.496000000000,   0.03600,
,,,-00.492000000000,   0.04000,
,,,-00.488000000000,   0.03600,
,,,-00.484000000000,   0.03600,
,,,-00.480000000000,   0.03600,
,,,-00.476000000000,   0.04000,
,,,-00.472000000000,   0.03600,
,,,-00.468000000000,   0.03600,
,,,-00.464000000000,   0.04000,
,,,-00.460000000000,   0.03600,
,,,-00.456000000000,   0.04000,
,,,-00.452000000000,   0.03600,
,,,-00.448000000000,   0.03600,
,,,-00.444000000000,   0.04000,
,,,-00.440000000000,   0.03600,
,,,-00.436000000000,   0.03600,
,,,-00.432000000000,   0.03600,
,,,-00.428000000000,   0.03600,
,,,-00.424000000000,   0.03600,
,,,-00.420000000000,   0.04000,
,,,-00.416000000000,   0.03600,
,,,-00.412000000000,   0.04000,
,,,-00.408000000000,   0.04000,
,,,-00.404000000000,   0.03600,
,,,-00.400000000000,   0.03600,
,,,-00.396000000000,   0.03600,
,,,-00.392000000000,   0.03600,
,,,-00.388000000000,   0.03600,
,,,-00.384000000000,   0.03600,
,,,-00.380000000000,   0.03600,
,,,-00.376000000000,   0.03600,
,,,-00.372000000000,   0.04000,
,,,-00.368000000000,   0.03600,
,,,-00.364000000000,   0.03600,
,,,-00.360000000000,   0.03600,
,,,-00.356000000000,   0.03600,
,,,-00.352000000000,   0.03600,
,,,-00.348000000000,   0.03600,
,,,-00.344000000000,   0.03600,
,,,-00.340000000000,   0.03600,
,,,-00.336000000000,   0.03600,
,,,-00.332000000000,   0.04000,
,,,-00.328000000000,   0.04000,
,,,-00.324000000000,   0.04000,
,,,-00.320000000000,   0.03600,
,,,-00.316000000000,   0.04000,
,,,-00.312000000000,   0.03600,
,,,-00.308000000000,   0.03600,
,,,-00.304000000000,   0.04000,
,,,-00.300000000000,   0.03600,
,,,-00.296000000000,   0.04000,
,,,-00.292000000000,   0.03600,
,,,-00.288000000000,   0.03600,
,,,-00.284000000000,   0.03600,
,,,-00.280000000000,   0.03600,
,,,-00.276000000000,   0.04000,
,,,-00.272000000000,   0.04000,
,,,-00.268000000000,   0.03600,
